{"name":"admin get all product","id":"product-admin;admin-get-all-product","testSteps":[{"number":1,"description":"Given I set url products","duration":704,"startTime":"2022-12-19T16:05:44.807976800+07:00[Asia/Jakarta]","result":"SUCCESS","precondition":false,"level":0},{"number":2,"description":"When I get all product","duration":10640,"startTime":"2022-12-19T16:05:45.529530300+07:00[Asia/Jakarta]","result":"SUCCESS","precondition":false,"level":0,"children":[{"number":3,"description":"GET https://foodnih.com/v1/admin/products?size\u003d10\u0026page\u003d0\u0026sort\u003did\r","duration":0,"startTime":"2022-12-19T16:05:56.167967100+07:00[Asia/Jakarta]","result":"SUCCESS","restQuery":{"method":"GET","path":"https://foodnih.com/v1/admin/products?size\u003d10\u0026page\u003d0\u0026sort\u003did\r","content":"\r","contentType":"application/json","requestHeaders":"accept\u003dapplication/json\r\n\t\t\t\tAuthorization\u003dBearer eyJhbGciOiJIUzI1NiIsInR5cCI6IkpXVCJ9.eyJpZCI6MSwiZXhwIjoxNjcxNTI2NDkzLCJoYXNfcm9sZSI6InN1cGVyYWRtaW4ifQ.5_AkK-lYVNyNJGC2e6mm-KShr9wiGnE7iBmGM29KBig\r\n\t\t\t\tContent-Type\u003dapplication/json\r","requestCookies":"\r","responseHeaders":"Server: nginx/1.18.0 (Ubuntu)\r\nDate: Mon, 19 Dec 2022 09:05:53 GMT\r\nContent-Type: application/json; charset\u003dUTF-8\r\nTransfer-Encoding: chunked\r\nConnection: keep-alive\r\nVary: Origin\r","responseCookies":"\r","responseBody":"{\n    \"status\": \"success\",\n    \"message\": \"all products\",\n    \"data\": {\n        \"items\": [\n            {\n                \"id\": 2,\n                \"name\": \"Telkomsel Pulsa 150000\",\n                \"description\": \"ini adalah paket untuk telkomsel\",\n                \"price\": 150000,\n                \"provider_id\": 10,\n                \"stock\": 44,\n                \"status\": \"Tersedia\",\n                \"total_purchased\": 0,\n                \"additional_information\": \"\",\n                \"is_available\": true,\n                \"price_status\": \"normal\",\n                \"is_promo_active\": false,\n                \"discount\": 0,\n                \"promo_start_date\": \"2022-12-14\",\n                \"promo_end_date\": \"2022-12-17\",\n                \"created_at\": \"2022-12-16T17:26:52.459774Z\",\n                \"updated_at\": \"2022-12-19T09:05:53.065793Z\",\n                \"deleted_at\": null\n            },\n            {\n                \"id\": 4,\n                \"name\": \"Paket Data Simpati LOOP 125000\",\n                \"description\": \"ini adalah paket 125000 untuk telkomsel\",\n                \"price\": 150000,\n                \"provider_id\": 0,\n                \"stock\": 12,\n                \"status\": \"Tersedia\",\n                \"total_purchased\": 0,\n                \"additional_information\": \"\",\n                \"is_available\": true,\n                \"price_status\": \"promo\",\n                \"is_promo_active\": true,\n                \"discount\": 0,\n                \"promo_start_date\": \"2022-12-17\",\n                \"promo_end_date\": \"2022-12-20\",\n                \"created_at\": \"2022-12-16T17:33:36.245084Z\",\n                \"updated_at\": \"2022-12-19T09:05:53.067461Z\",\n                \"deleted_at\": null\n            },\n            {\n                \"id\": 6,\n                \"name\": \"Freedom 5GB/7Hari\",\n                \"description\": \"Freedom 5GB/7Hari\",\n                \"price\": 15000,\n                \"provider_id\": 19,\n                \"stock\": 9,\n                \"status\": \"Tersedia\",\n                \"total_purchased\": 1,\n                \"additional_information\": \"\",\n                \"is_available\": true,\n                \"price_status\": \"normal\",\n                \"is_promo_active\": false,\n                \"discount\": 0,\n                \"promo_start_date\": \"\",\n                \"promo_end_date\": \"\",\n                \"created_at\": \"2022-12-17T01:49:35.426802Z\",\n                \"updated_at\": \"2022-12-19T09:05:53.068923Z\",\n                \"deleted_at\": null\n            },\n            {\n                \"id\": 7,\n                \"name\": \"SIMPATI DATA FLASH 9GB\",\n                \"description\": \"Loop\",\n                \"price\": 130000,\n                \"provider_id\": 20,\n                \"stock\": 12,\n                \"status\": \"Tersedia\",\n                \"total_purchased\": 0,\n                \"additional_information\": \"\",\n                \"is_available\": true,\n                \"price_status\": \"normal\",\n                \"is_promo_active\": false,\n                \"discount\": 0,\n                \"promo_start_date\": \"2022-12-16\",\n                \"promo_end_date\": \"2022-12-26\",\n                \"created_at\": \"2022-12-17T01:51:42.678057Z\",\n                \"updated_at\": \"2022-12-19T09:05:53.070076Z\",\n                \"deleted_at\": null\n            },\n            {\n                \"id\": 8,\n                \"name\": \"Freedom Combo 40GB / 30 HariO\",\n                \"description\": \"toop\",\n                \"price\": 108000,\n                \"provider_id\": 19,\n                \"stock\": 9,\n                \"status\": \"Tersedia\",\n                \"total_purchased\": 0,\n                \"additional_information\": \"\",\n                \"is_available\": true,\n                \"price_status\": \"normal\",\n                \"is_promo_active\": false,\n                \"discount\": 0,\n                \"promo_start_date\": \"2022-12-01\",\n                \"promo_end_date\": \"2022-12-30\",\n                \"created_at\": \"2022-12-17T01:52:57.267415Z\",\n                \"updated_at\": \"2022-12-19T09:05:53.071223Z\",\n                \"deleted_at\": null\n            },\n            {\n                \"id\": 14,\n                \"name\": \"internet sakti 78\",\n                \"description\": \"internet sakti 66\",\n                \"price\": 14000,\n                \"provider_id\": 19,\n                \"stock\": 20,\n                \"status\": \"Tersedia\",\n                \"total_purchased\": 0,\n                \"additional_information\": \"\",\n                \"is_available\": true,\n                \"price_status\": \"normal\",\n                \"is_promo_active\": false,\n                \"discount\": 0,\n                \"promo_start_date\": \"\",\n                \"promo_end_date\": \"\",\n                \"created_at\": \"2022-12-17T02:15:04.794826Z\",\n                \"updated_at\": \"2022-12-19T09:05:53.072314Z\",\n                \"deleted_at\": null\n            },\n            {\n                \"id\": 18,\n                \"name\": \"Freedom Data 7GB/3Hari\",\n                \"description\": \"sasa bumbu masak \",\n                \"price\": 3400,\n                \"provider_id\": 19,\n                \"stock\": 20,\n                \"status\": \"Tersedia\",\n                \"total_purchased\": 0,\n                \"additional_information\": \"\",\n                \"is_available\": true,\n                \"price_status\": \"normal\",\n                \"is_promo_active\": false,\n                \"discount\": 0,\n                \"promo_start_date\": \"\",\n                \"promo_end_date\": \"\",\n                \"created_at\": \"2022-12-17T05:43:31.774348Z\",\n                \"updated_at\": \"2022-12-19T09:05:53.073663Z\",\n                \"deleted_at\": null\n            },\n            {\n                \"id\": 24,\n                \"name\": \"paket simpati loop 800000\",\n                \"description\": \"ini adalah paket 18000 untuk halokomsel\",\n                \"price\": 180000,\n                \"provider_id\": 0,\n                \"stock\": 5,\n                \"status\": \"Tersedia\",\n                \"total_purchased\": 0,\n                \"additional_information\": \"\",\n                \"is_available\": true,\n                \"price_status\": \"promo\",\n                \"is_promo_active\": false,\n                \"discount\": 50000,\n                \"promo_start_date\": \"2022-12-14\",\n                \"promo_end_date\": \"2022-12-18\",\n                \"created_at\": \"2022-12-17T11:47:52.835471Z\",\n                \"updated_at\": \"2022-12-19T09:05:53.074959Z\",\n                \"deleted_at\": null\n            },\n            {\n                \"id\": 25,\n                \"name\": \"paket simpati loop 800000\",\n                \"description\": \"ini adalah paket 18000 untuk halokomsel\",\n                \"price\": 180000,\n                \"provider_id\": 0,\n                \"stock\": 5,\n                \"status\": \"Tersedia\",\n                \"total_purchased\": 0,\n                \"additional_information\": \"\",\n                \"is_available\": true,\n                \"price_status\": \"promo\",\n                \"is_promo_active\": false,\n                \"discount\": 50000,\n                \"promo_start_date\": \"2022-12-14\",\n                \"promo_end_date\": \"2022-12-18\",\n                \"created_at\": \"2022-12-17T11:48:58.522208Z\",\n                \"updated_at\": \"2022-12-19T09:05:53.076115Z\",\n                \"deleted_at\": null\n            },\n            {\n                \"id\": 42,\n                \"name\": \"paket simpati loop 800000\",\n                \"description\": \"ini adalah paket 18000 untuk halokomsel\",\n                \"price\": 180000,\n                \"provider_id\": 0,\n                \"stock\": 5,\n                \"status\": \"Tersedia\",\n                \"total_purchased\": 0,\n                \"additional_information\": \"\",\n                \"is_available\": true,\n                \"price_status\": \"promo\",\n                \"is_promo_active\": false,\n                \"discount\": 50000,\n                \"promo_start_date\": \"2022-12-14\",\n                \"promo_end_date\": \"2022-12-18\",\n                \"created_at\": \"2022-12-17T12:17:53.201879Z\",\n                \"updated_at\": \"2022-12-19T09:05:53.077424Z\",\n                \"deleted_at\": null\n            }\n        ],\n        \"page\": 0,\n        \"size\": 10,\n        \"max_page\": 10,\n        \"total_pages\": 11,\n        \"total\": 102,\n        \"last\": false,\n        \"first\": true,\n        \"visible\": 10\n    }\n}","statusCode":200},"precondition":false,"level":1}]},{"number":4,"description":"Then I will get status succes get all product","duration":5,"startTime":"2022-12-19T16:05:56.171966500+07:00[Asia/Jakarta]","result":"SUCCESS","precondition":false,"level":0}],"userStory":{"id":"product-admin","storyName":"Product Admin","path":"Admin/ProductAdmin.feature","narrative":"  As a admin\n  I want to manage product\n  So I can create a product","type":"feature"},"featureTag":{"name":"Admin/Product Admin","type":"feature","displayName":"Admin/Product Admin"},"title":"admin get all product","description":"","tags":[{"name":"Admin/Product Admin","type":"feature","displayName":"Product Admin"},{"name":"Admin","type":"capability","displayName":"Admin"}],"startTime":"2022-12-19T16:05:44.798982500+07:00[Asia/Jakarta]","duration":11380,"projectKey":"","isManualTestingUpToDate":false,"manual":false,"testSource":"Cucumber","result":"SUCCESS"}